CASHUNITID;CASHUNITWORTH;CASHUNITNAME#de-DE;CASHUNITNAME#en-US;ISCOIN;DESCRIPTION#de-DE;DESCRIPTION#en-US;MINCOUNT;MAXCOUNT;VISIBLE
-2;0;%;%;0;Füllstand;Fill level;0;0;1
-1;0;cm;cm;0;Papierlänge;remaining Paper length;0;0;1
0;0;0,00 €;0$;0;-;-;-1;9999;1
1;1;0,01 €;0,01 $;1;1 Cent;1 Cent;0;0;0
2;2;0,02 €;n/a;1;2 Cent;n/a;0;0;0
5;5;0,05 €;0,05 $;1;5 Cent;5 Cent;30;500;0
10;10;0,10 €;0,10$;1;10 Cent;10 Cent;60;500;0
20;20;0,20 €;n/a;1;20 Cent;n/a;-1;50;0
25;25;n/a;0,25 $;1;n/a;25 Cent;-1;50;0
50;50;0,50 €;0,50$;1;50 Cent;50 Cent;-1;50;1
100;100;1,00 €;1$;1;1 Euro;1 USD;10;50;1
200;200;2,00 €;2$;1;2 Euro;2 USD;10;50;1
32868;100;n/a;1$;0;n/a;1 USD;-1;9999;1
32968;200;n/a;2$;0;n/a;2 USD;-1;9999;1
33074;500;5,00 €;5$;0;5 Euro;5 USD;-1;9999;1
33124;1000;10,00 €;10$;0;10 Euro;10 USD;-1;9999;1
33224;2000;20,00 €;20$;0;20 Euro;20 USD;-1;9999;1
33330;5000;50,00 €;50$;0;50 Euro;50 USD;-1;9999;1
33380;10000;100,00 €;100$;0;100 Euro;100 USD;-1;9999;1
33480;20000;200,00 €;n/a;0;200 Euro;n/a;-1;9999;1
33586;50000;500,00 €;n/a;0;500 Euro;n/a;-1;9999;1
