ENTRYRANGENO;ENTRYRANGENAME#de-DE;ENTRYRANGEIDCODE;ENTRYRANGEID;ENTRYRANGENAME#en-US
1;Manuelle Buchungen;MB;1;manual accounting
2;Lastschriftverfahren;LS;2;direct debit
3;Stornierungen;ST;3;cancelations
4;Rechnungslegung;RL;4;accounting
0;Kein;-;0;none
