TYPEOFDISPATCHCARDID;CODENO;DESCRIPTION#de-DE;LANGUAGE;ORDERNO;;DESCRIPTION#en-US
4;4;Keine Karte erhalten;DE;4;;No card received
1;1;Post;DE;3;;Post
2;2;Eigene Karte;DE;2;;Own card
3;3;Persönlich abgeholt;DE;1;;Personal fetched
