BUSINESSTRANSACTIONID;BOOKINGKEYID;PAYMENTMETHODID;TICKETSPECIESID;DESCRIPTION;PERSONQUANTITYREQUIRED;CLIENTID;BUSINESSTRANSACTIONNO
427;410;0;423;NOT-/BLANKOFAHRSCH. SCHÜLWOCH SCHECK;1;4;27
430;410;1;401;NOT-/BLANKOFAHRSCH. REGELTARIF BAR;1;4;30
431;410;1;410;NOT-/BLANKOFAHRSCH. SECHSERKARTEN BAR;1;4;31
432;410;1;414;NOT-/BLANKOFAHRSCH. MONATSKARTEN BAR;1;4;32
433;410;1;416;NOT-/BLANKOFAHRSCH. SCHÜLMON BAR;1;4;33
434;410;1;421;NOT-/BLANKOFAHRSCH. WOCHENKARTEN BAR;1;4;34
435;410;1;423;NOT-/BLANKOFAHRSCH. SCHÜLWOCH BAR;1;4;35
438;410;6;401;NOT-/BLANKOFAHRSCH. REGELTA. SALDIERUNG;1;4;38
439;410;6;410;NOT-/BLANKOFAHRSCH. SECHSERK. SALDIERUNG;1;4;39
440;410;6;414;NOT-/BLANKOFAHRSCH. MONATSK. SALDIERUNG;1;4;40
441;410;6;416;NOT-/BLANKOFAHRSCH. SCHÜLMON SALDIERUNG;1;4;41
442;410;6;421;NOT-/BLANKOFAHRSCH. WOCHENK. SALDIERUNG;1;4;42
443;410;6;423;NOT-/BLANKOFAHRSCH. SCHÜLWOCH SALDIERUNG;1;4;43
446;411;0;401;PAUSCHALE ZAHLUNGEN SCHECK REGELTARIF;1;4;46
447;411;0;414;PAUSCHALE ZAHLUNGEN SCHECK BERUFSVERKEHR;1;4;47
448;411;0;416;PAUSCHALE ZAHLUNGEN SCHECK SCHÜLERVERK;1;4;48
449;411;1;401;PAUSCHALE ZAHLUNGEN BAR REGELTARIF;1;4;49
450;411;1;414;PAUSCHALE ZAHLUNGEN BAR BERUFSVERKEHR;1;4;50
451;411;1;416;PAUSCHALE ZAHLUNGEN BAR SCHÜLERVER;1;4;51
452;411;2;401;PAUSCHALE ZAHLUNGEN UNBAR REGELTARIF;1;4;52
453;411;2;414;PAUSCHALE ZAHLUNGEN UNBAR BERUFSVERKEHR;1;4;53
454;411;2;429;PAUSCHALE ZAHLUNGEN UNBAR UMWELTABO;1;4;54
455;411;2;416;UMWELTABO SCHÜLER UNBAR ANTEIL KUNDE;1;4;55
456;411;2;410;PAUSCHALE ZAHLUNGEN UNBAR SECHSERKARTE;1;4;56
457;411;2;421;PAUSCHALE ZAHLUNGEN UNBAR WOCHENKARTE;1;4;57
458;411;2;423;PAUSCHALE ZAHLUNGEN UNBAR SCHÜLWOCH;1;4;58
459;411;2;407;ZEHNERKARTE ANTEIL LANDKREIS OHNE PERS.;0;4;59
461;411;2;419;ABO-Selbstzahler ab 01.01.2008;1;4;61
463;411;6;401;PAUSCHALE ZAHLUNGEN UNBAR SALDIERUNG;1;4;63
464;411;6;416;"UMWELTABO SCHÜLER SALD. Ant. Kunde """"""""lösc";1;4;64
466;411;7;401;PAUSCHALE ZAHLUNGEN GUTSCH BW REGELTARIF;1;4;66
467;411;7;414;PAUSCHALE ZAHLUNGEN GUTSCH BW BERUFSVERK;1;4;67
468;411;7;416;PAUSCHALE ZAHLUNGEN GUTSCH BW SCHÜLERVER;1;4;68
469;411;8;401;PAUSCHALE ZAHLUNGEN GUTSCH REGELTARIF;1;4;69
470;411;8;414;PAUSCHALE ZAHLUNGEN GUTSCH BERUFSVERK;1;4;70
471;411;8;416;PAUSCHALE ZAHLUNGEN GUTSCH SCHÜLERVER;1;4;71
478;422;0;427;MIETOMNIBUS STEUERFREI BAR;1;4;78
479;422;1;427;MIETOMNIBUS STEUERFREI SCHECK;1;4;79
480;422;2;427;MIETOMNIBUS STEUERFREI UNBAR;1;4;80
481;422;7;427;MIETOMNIBUS STEUERFREI GUSCHEIN BW;1;4;81
482;422;8;427;MIETOMNIBUS STEUERFREI GUSCHEIN;1;4;82
483;424;0;427;MIETOMNIBUS ALLG. STEUERSATZ SCHECK;1;4;83
484;424;1;427;MIETOMNIBUS ALLG. STEUERSATZ BAR;1;4;84
485;424;2;427;MIETOMNIBUS ALLG. STEUERSATZ UNBAR;1;4;85
486;424;7;427;MIETOMNIBUS ALLG.STEUERSATZ GUTSCHEIN BW;1;4;86
487;424;8;427;MIETOMNIBUS ALLG. STEUERSATZ GUTSCHEIN;1;4;87
488;434;7;427;MIETOMNIBUS BUNDESWEHR (MTS);1;4;88
1;0;0;3;BUSKURIERGUT SCHECK;0;1;1
2;0;1;3;BUSKURIERGUT BAR;0;1;2
3;0;1;1;EINZELFAHRT REGELTARIF BAR;1;1;3
4;0;1;10;MEHRFAHRTEN REGELTARIF BAR;1;1;4
5;0;2;3;BUSKURIERGUT UNBAR;0;1;5
7;0;2;29;UMWELTABO JEDERMANN UNBAR ANTEIL KUNDE;1;1;7
9;0;2;16;UMWELTABO AMBERG SCHÜLER UNBAR ANTEIL  KT;0;1;9
10;0;3;0;KASSENÜBERSCHÜSSE VB;0;1;10
11;0;5;0;NACHWEIS DER POSTGEBÜHREN;0;1;11
12;0;6;1;EINZELFAHRT REGELTARIF SALDIERUNG;1;1;12
13;0;6;10;MEHRFAHRTEN REGELTARIF SALDIERUNG;1;1;13
15;5;1;0;STEUERPFLICHTIGE ABSETZUNG BAR;0;1;15
16;5;6;0;STEUERPFLICHTIGE ABSETZUNG STUNDUNG/SALD;0;1;16
17;6;1;1;ERSTATTUNG REGELTARIF BAR;1;1;17
18;6;1;14;ERSTATTUNG MONATSKARTE BAR;1;1;18
19;6;1;16;ERSTATTUNG SCHÜLERMONATSKARTE BAR;1;1;19
20;6;1;21;ERSTATTUNG WOCHENKARTE BAR;1;1;20
21;6;1;23;ERSTATTUNG SCHÜLERWOCHENKARTE BAR;1;1;21
22;10;0;1;NOT-/BLANKOFAHRSCH. REGELTARIF SCHECK;1;1;22
23;10;0;10;NOT-/BLANKOFAHRSCH. SECHSERKARTEN  SCHECK;1;1;23
24;10;0;14;NOT-/BLANKOFAHRSCH. MONATSKARTEN SCHECK;1;1;24
25;10;0;16;NOT-/BLANKOFAHRSCH. SCHÜLMON SCHECK;1;1;25
26;10;0;21;NOT-/BLANKOFAHRSCH. WOCHENKARTEN SCHECK;1;1;26
27;10;0;23;NOT-/BLANKOFAHRSCH. SCHÜLWOCH SCHECK;1;1;27
30;10;1;1;NOT-/BLANKOFAHRSCH. REGELTARIF BAR;1;1;30
31;10;1;10;NOT-/BLANKOFAHRSCH. SECHSERKARTEN BAR;1;1;31
32;10;1;14;NOT-/BLANKOFAHRSCH. MONATSKARTEN BAR;1;1;32
33;10;1;16;NOT-/BLANKOFAHRSCH. SCHÜLMON BAR;1;1;33
34;10;1;21;NOT-/BLANKOFAHRSCH. WOCHENKARTEN BAR;1;1;34
35;10;1;23;NOT-/BLANKOFAHRSCH. SCHÜLWOCH BAR;1;1;35
38;10;6;1;NOT-/BLANKOFAHRSCH. REGELTA. SALDIERUNG;1;1;38
39;10;6;10;NOT-/BLANKOFAHRSCH. SECHSERK. SALDIERUNG;1;1;39
40;10;6;14;NOT-/BLANKOFAHRSCH. MONATSK. SALDIERUNG;1;1;40
41;10;6;16;NOT-/BLANKOFAHRSCH. SCHÜLMON SALDIERUNG;1;1;41
42;10;6;21;NOT-/BLANKOFAHRSCH. WOCHENK. SALDIERUNG;1;1;42
43;10;6;23;NOT-/BLANKOFAHRSCH. SCHÜLWOCH SALDIERUNG;1;1;43
46;11;0;1;PAUSCHALE ZAHLUNGEN SCHECK REGELTARIF;1;1;46
47;11;0;14;PAUSCHALE ZAHLUNGEN SCHECK BERUFSVERKEHR;1;1;47
48;11;0;16;PAUSCHALE ZAHLUNGEN SCHECK SCHÜLERVERK;1;1;48
49;11;1;1;PAUSCHALE ZAHLUNGEN BAR REGELTARIF;1;1;49
50;11;1;14;PAUSCHALE ZAHLUNGEN BAR BERUFSVERKEHR;1;1;50
51;11;1;16;PAUSCHALE ZAHLUNGEN BAR SCHÜLERVER;1;1;51
52;11;2;1;PAUSCHALE ZAHLUNGEN UNBAR REGELTARIF;1;1;52
53;11;2;14;PAUSCHALE ZAHLUNGEN UNBAR BERUFSVERKEHR;1;1;53
54;11;2;29;PAUSCHALE ZAHLUNGEN UNBAR UMWELTABO;1;1;54
55;11;2;16;UMWELTABO SCHÜLER UNBAR ANTEIL KUNDE;1;1;55
56;11;2;10;PAUSCHALE ZAHLUNGEN UNBAR SECHSERKARTE;1;1;56
57;11;2;21;PAUSCHALE ZAHLUNGEN UNBAR WOCHENKARTE;1;1;57
58;11;2;23;PAUSCHALE ZAHLUNGEN UNBAR SCHÜLWOCH;1;1;58
59;11;2;7;ZEHNERKARTE ANTEIL LANDKREIS OHNE PERS.;0;1;59
61;11;2;19;ABO-Selbstzahler ab 01.01.2008;1;1;61
63;11;6;1;PAUSCHALE ZAHLUNGEN UNBAR SALDIERUNG;1;1;63
64;11;6;16;"UMWELTABO SCHÜLER SALD. Ant. Kunde """"""""lösc";1;1;64
66;11;7;1;PAUSCHALE ZAHLUNGEN GUTSCH BW REGELTARIF;1;1;66
67;11;7;14;PAUSCHALE ZAHLUNGEN GUTSCH BW BERUFSVERK;1;1;67
68;11;7;16;PAUSCHALE ZAHLUNGEN GUTSCH BW SCHÜLERVER;1;1;68
69;11;8;1;PAUSCHALE ZAHLUNGEN GUTSCH REGELTARIF;1;1;69
70;11;8;14;PAUSCHALE ZAHLUNGEN GUTSCH BERUFSVERK;1;1;70
71;11;8;16;PAUSCHALE ZAHLUNGEN GUTSCH SCHÜLERVER;1;1;71
78;22;0;27;MIETOMNIBUS STEUERFREI BAR;1;1;78
79;22;1;27;MIETOMNIBUS STEUERFREI SCHECK;1;1;79
80;22;2;27;MIETOMNIBUS STEUERFREI UNBAR;1;1;80
81;22;7;27;MIETOMNIBUS STEUERFREI GUSCHEIN BW;1;1;81
82;22;8;27;MIETOMNIBUS STEUERFREI GUSCHEIN;1;1;82
83;24;0;27;MIETOMNIBUS ALLG. STEUERSATZ SCHECK;1;1;83
84;24;1;27;MIETOMNIBUS ALLG. STEUERSATZ BAR;1;1;84
85;24;2;27;MIETOMNIBUS ALLG. STEUERSATZ UNBAR;1;1;85
86;24;7;27;MIETOMNIBUS ALLG.STEUERSATZ GUTSCHEIN BW;1;1;86
87;24;8;27;MIETOMNIBUS ALLG. STEUERSATZ GUTSCHEIN;1;1;87
88;34;7;27;MIETOMNIBUS BUNDESWEHR (MTS);1;1;88
201;0;0;203;BUSKURIERGUT SCHECK;0;2;1
202;0;1;203;BUSKURIERGUT BAR;0;2;2
203;0;1;201;EINZELFAHRT REGELTARIF BAR;1;2;3
204;0;1;210;MEHRFAHRTEN REGELTARIF BAR;1;2;4
205;0;2;203;BUSKURIERGUT UNBAR;0;2;5
207;0;2;229;UMWELTABO JEDERMANN UNBAR ANTEIL KUNDE;1;2;7
209;0;2;216;UMWELTABO AMBERG SCHÜLER UNBAR ANTEIL  KT;0;2;9
210;0;3;0;KASSENÜBERSCHÜSSE VB;0;2;10
211;0;5;0;NACHWEIS DER POSTGEBÜHREN;0;2;11
212;0;6;201;EINZELFAHRT REGELTARIF SALDIERUNG;1;2;12
213;0;6;210;MEHRFAHRTEN REGELTARIF SALDIERUNG;1;2;13
215;205;1;0;STEUERPFLICHTIGE ABSETZUNG BAR;0;2;15
216;205;6;0;STEUERPFLICHTIGE ABSETZUNG STUNDUNG/SALD;0;2;16
217;206;1;201;ERSTATTUNG REGELTARIF BAR;1;2;17
218;206;1;214;ERSTATTUNG MONATSKARTE BAR;1;2;18
219;206;1;216;ERSTATTUNG SCHÜLERMONATSKARTE BAR;1;2;19
220;206;1;221;ERSTATTUNG WOCHENKARTE BAR;1;2;20
221;206;1;223;ERSTATTUNG SCHÜLERWOCHENKARTE BAR;1;2;21
222;210;0;201;NOT-/BLANKOFAHRSCH. REGELTARIF SCHECK;1;2;22
223;210;0;210;NOT-/BLANKOFAHRSCH. SECHSERKARTEN  SCHECK;1;2;23
224;210;0;214;NOT-/BLANKOFAHRSCH. MONATSKARTEN SCHECK;1;2;24
225;210;0;216;NOT-/BLANKOFAHRSCH. SCHÜLMON SCHECK;1;2;25
226;210;0;221;NOT-/BLANKOFAHRSCH. WOCHENKARTEN SCHECK;1;2;26
227;210;0;223;NOT-/BLANKOFAHRSCH. SCHÜLWOCH SCHECK;1;2;27
230;210;1;201;NOT-/BLANKOFAHRSCH. REGELTARIF BAR;1;2;30
231;210;1;210;NOT-/BLANKOFAHRSCH. SECHSERKARTEN BAR;1;2;31
232;210;1;214;NOT-/BLANKOFAHRSCH. MONATSKARTEN BAR;1;2;32
233;210;1;216;NOT-/BLANKOFAHRSCH. SCHÜLMON BAR;1;2;33
234;210;1;221;NOT-/BLANKOFAHRSCH. WOCHENKARTEN BAR;1;2;34
235;210;1;223;NOT-/BLANKOFAHRSCH. SCHÜLWOCH BAR;1;2;35
238;210;6;201;NOT-/BLANKOFAHRSCH. REGELTA. SALDIERUNG;1;2;38
239;210;6;210;NOT-/BLANKOFAHRSCH. SECHSERK. SALDIERUNG;1;2;39
240;210;6;214;NOT-/BLANKOFAHRSCH. MONATSK. SALDIERUNG;1;2;40
241;210;6;216;NOT-/BLANKOFAHRSCH. SCHÜLMON SALDIERUNG;1;2;41
242;210;6;221;NOT-/BLANKOFAHRSCH. WOCHENK. SALDIERUNG;1;2;42
243;210;6;223;NOT-/BLANKOFAHRSCH. SCHÜLWOCH SALDIERUNG;1;2;43
246;211;0;201;PAUSCHALE ZAHLUNGEN SCHECK REGELTARIF;1;2;46
247;211;0;214;PAUSCHALE ZAHLUNGEN SCHECK BERUFSVERKEHR;1;2;47
248;211;0;216;PAUSCHALE ZAHLUNGEN SCHECK SCHÜLERVERK;1;2;48
249;211;1;201;PAUSCHALE ZAHLUNGEN BAR REGELTARIF;1;2;49
250;211;1;214;PAUSCHALE ZAHLUNGEN BAR BERUFSVERKEHR;1;2;50
251;211;1;216;PAUSCHALE ZAHLUNGEN BAR SCHÜLERVER;1;2;51
252;211;2;201;PAUSCHALE ZAHLUNGEN UNBAR REGELTARIF;1;2;52
253;211;2;214;PAUSCHALE ZAHLUNGEN UNBAR BERUFSVERKEHR;1;2;53
254;211;2;229;PAUSCHALE ZAHLUNGEN UNBAR UMWELTABO;1;2;54
255;211;2;216;UMWELTABO SCHÜLER UNBAR ANTEIL KUNDE;1;2;55
256;211;2;210;PAUSCHALE ZAHLUNGEN UNBAR SECHSERKARTE;1;2;56
257;211;2;221;PAUSCHALE ZAHLUNGEN UNBAR WOCHENKARTE;1;2;57
258;211;2;223;PAUSCHALE ZAHLUNGEN UNBAR SCHÜLWOCH;1;2;58
259;211;2;207;ZEHNERKARTE ANTEIL LANDKREIS OHNE PERS.;0;2;59
261;211;2;219;ABO-Selbstzahler ab 01.01.2008;1;2;61
263;211;6;201;PAUSCHALE ZAHLUNGEN UNBAR SALDIERUNG;1;2;63
264;211;6;216;"UMWELTABO SCHÜLER SALD. Ant. Kunde """"""""lösc";1;2;64
266;211;7;201;PAUSCHALE ZAHLUNGEN GUTSCH BW REGELTARIF;1;2;66
267;211;7;214;PAUSCHALE ZAHLUNGEN GUTSCH BW BERUFSVERK;1;2;67
268;211;7;216;PAUSCHALE ZAHLUNGEN GUTSCH BW SCHÜLERVER;1;2;68
269;211;8;201;PAUSCHALE ZAHLUNGEN GUTSCH REGELTARIF;1;2;69
270;211;8;214;PAUSCHALE ZAHLUNGEN GUTSCH BERUFSVERK;1;2;70
271;211;8;216;PAUSCHALE ZAHLUNGEN GUTSCH SCHÜLERVER;1;2;71
278;222;0;227;MIETOMNIBUS STEUERFREI BAR;1;2;78
279;222;1;227;MIETOMNIBUS STEUERFREI SCHECK;1;2;79
280;222;2;227;MIETOMNIBUS STEUERFREI UNBAR;1;2;80
281;222;7;227;MIETOMNIBUS STEUERFREI GUSCHEIN BW;1;2;81
282;222;8;227;MIETOMNIBUS STEUERFREI GUSCHEIN;1;2;82
283;224;0;227;MIETOMNIBUS ALLG. STEUERSATZ SCHECK;1;2;83
284;224;1;227;MIETOMNIBUS ALLG. STEUERSATZ BAR;1;2;84
285;224;2;227;MIETOMNIBUS ALLG. STEUERSATZ UNBAR;1;2;85
286;224;7;227;MIETOMNIBUS ALLG.STEUERSATZ GUTSCHEIN BW;1;2;86
287;224;8;227;MIETOMNIBUS ALLG. STEUERSATZ GUTSCHEIN;1;1;87
288;234;7;227;MIETOMNIBUS BUNDESWEHR (MTS);1;2;88
301;0;0;303;BUSKURIERGUT SCHECK;0;3;1
302;0;1;303;BUSKURIERGUT BAR;0;3;2
303;0;1;301;EINZELFAHRT REGELTARIF BAR;1;3;3
304;0;1;310;MEHRFAHRTEN REGELTARIF BAR;1;3;4
305;0;2;303;BUSKURIERGUT UNBAR;0;3;5
307;0;2;329;UMWELTABO JEDERMANN UNBAR ANTEIL KUNDE;1;3;7
309;0;2;316;UMWELTABO AMBERG SCHÜLER UNBAR ANTEIL  KT;0;3;9
310;0;3;0;KASSENÜBERSCHÜSSE VB;0;3;10
311;0;5;0;NACHWEIS DER POSTGEBÜHREN;0;3;11
312;0;6;301;EINZELFAHRT REGELTARIF SALDIERUNG;1;3;12
313;0;6;310;MEHRFAHRTEN REGELTARIF SALDIERUNG;1;3;13
315;305;1;0;STEUERPFLICHTIGE ABSETZUNG BAR;0;3;15
316;305;6;0;STEUERPFLICHTIGE ABSETZUNG STUNDUNG/SALD;0;3;16
317;306;1;301;ERSTATTUNG REGELTARIF BAR;1;3;17
318;306;1;314;ERSTATTUNG MONATSKARTE BAR;1;3;18
319;306;1;316;ERSTATTUNG SCHÜLERMONATSKARTE BAR;1;3;19
320;306;1;321;ERSTATTUNG WOCHENKARTE BAR;1;3;20
321;306;1;323;ERSTATTUNG SCHÜLERWOCHENKARTE BAR;1;3;21
322;310;0;301;NOT-/BLANKOFAHRSCH. REGELTARIF SCHECK;1;3;22
323;310;0;310;NOT-/BLANKOFAHRSCH. SECHSERKARTEN  SCHECK;1;3;23
324;310;0;314;NOT-/BLANKOFAHRSCH. MONATSKARTEN SCHECK;1;3;24
325;310;0;316;NOT-/BLANKOFAHRSCH. SCHÜLMON SCHECK;1;3;25
326;310;0;321;NOT-/BLANKOFAHRSCH. WOCHENKARTEN SCHECK;1;3;26
327;310;0;323;NOT-/BLANKOFAHRSCH. SCHÜLWOCH SCHECK;1;3;27
330;310;1;301;NOT-/BLANKOFAHRSCH. REGELTARIF BAR;1;3;30
331;310;1;310;NOT-/BLANKOFAHRSCH. SECHSERKARTEN BAR;1;3;31
332;310;1;314;NOT-/BLANKOFAHRSCH. MONATSKARTEN BAR;1;3;32
333;310;1;316;NOT-/BLANKOFAHRSCH. SCHÜLMON BAR;1;3;33
334;310;1;321;NOT-/BLANKOFAHRSCH. WOCHENKARTEN BAR;1;3;34
335;310;1;323;NOT-/BLANKOFAHRSCH. SCHÜLWOCH BAR;1;3;35
338;310;6;301;NOT-/BLANKOFAHRSCH. REGELTA. SALDIERUNG;1;3;38
339;310;6;310;NOT-/BLANKOFAHRSCH. SECHSERK. SALDIERUNG;1;3;39
340;310;6;314;NOT-/BLANKOFAHRSCH. MONATSK. SALDIERUNG;1;3;40
341;310;6;316;NOT-/BLANKOFAHRSCH. SCHÜLMON SALDIERUNG;1;3;41
342;310;6;321;NOT-/BLANKOFAHRSCH. WOCHENK. SALDIERUNG;1;3;42
343;310;6;323;NOT-/BLANKOFAHRSCH. SCHÜLWOCH SALDIERUNG;1;3;43
346;311;0;301;PAUSCHALE ZAHLUNGEN SCHECK REGELTARIF;1;3;46
347;311;0;314;PAUSCHALE ZAHLUNGEN SCHECK BERUFSVERKEHR;1;3;47
348;311;0;316;PAUSCHALE ZAHLUNGEN SCHECK SCHÜLERVERK;1;3;48
349;311;1;301;PAUSCHALE ZAHLUNGEN BAR REGELTARIF;1;3;49
350;311;1;314;PAUSCHALE ZAHLUNGEN BAR BERUFSVERKEHR;1;3;50
351;311;1;316;PAUSCHALE ZAHLUNGEN BAR SCHÜLERVER;1;3;51
352;311;2;301;PAUSCHALE ZAHLUNGEN UNBAR REGELTARIF;1;3;52
353;311;2;314;PAUSCHALE ZAHLUNGEN UNBAR BERUFSVERKEHR;1;3;53
354;311;2;329;PAUSCHALE ZAHLUNGEN UNBAR UMWELTABO;1;3;54
355;311;2;316;UMWELTABO SCHÜLER UNBAR ANTEIL KUNDE;1;3;55
356;311;2;310;PAUSCHALE ZAHLUNGEN UNBAR SECHSERKARTE;1;3;56
357;311;2;321;PAUSCHALE ZAHLUNGEN UNBAR WOCHENKARTE;1;3;57
358;311;2;323;PAUSCHALE ZAHLUNGEN UNBAR SCHÜLWOCH;1;3;58
359;311;2;307;ZEHNERKARTE ANTEIL LANDKREIS OHNE PERS.;0;3;59
361;311;2;319;ABO-Selbstzahler ab 01.01.2008;1;3;61
363;311;6;301;PAUSCHALE ZAHLUNGEN UNBAR SALDIERUNG;1;3;63
364;311;6;316;"UMWELTABO SCHÜLER SALD. Ant. Kunde """"""""lösc";1;3;64
366;311;7;301;PAUSCHALE ZAHLUNGEN GUTSCH BW REGELTARIF;1;3;66
367;311;7;314;PAUSCHALE ZAHLUNGEN GUTSCH BW BERUFSVERK;1;3;67
368;311;7;316;PAUSCHALE ZAHLUNGEN GUTSCH BW SCHÜLERVER;1;3;68
369;311;8;301;PAUSCHALE ZAHLUNGEN GUTSCH REGELTARIF;1;3;69
370;311;8;314;PAUSCHALE ZAHLUNGEN GUTSCH BERUFSVERK;1;3;70
371;311;8;316;PAUSCHALE ZAHLUNGEN GUTSCH SCHÜLERVER;1;3;71
378;322;0;327;MIETOMNIBUS STEUERFREI BAR;1;3;78
379;322;1;327;MIETOMNIBUS STEUERFREI SCHECK;1;3;79
380;322;2;327;MIETOMNIBUS STEUERFREI UNBAR;1;3;80
381;322;7;327;MIETOMNIBUS STEUERFREI GUSCHEIN BW;1;3;81
382;322;8;327;MIETOMNIBUS STEUERFREI GUSCHEIN;1;3;82
383;324;0;327;MIETOMNIBUS ALLG. STEUERSATZ SCHECK;1;3;83
384;324;1;327;MIETOMNIBUS ALLG. STEUERSATZ BAR;1;3;84
385;324;2;327;MIETOMNIBUS ALLG. STEUERSATZ UNBAR;1;3;85
386;324;7;327;MIETOMNIBUS ALLG.STEUERSATZ GUTSCHEIN BW;1;3;86
387;324;8;327;MIETOMNIBUS ALLG. STEUERSATZ GUTSCHEIN;1;3;87
388;334;7;327;MIETOMNIBUS BUNDESWEHR (MTS);1;3;88
401;0;0;403;BUSKURIERGUT SCHECK;0;4;1
402;0;1;403;BUSKURIERGUT BAR;0;4;2
403;0;1;401;EINZELFAHRT REGELTARIF BAR;1;4;3
404;0;1;410;MEHRFAHRTEN REGELTARIF BAR;1;4;4
405;0;2;403;BUSKURIERGUT UNBAR;0;4;5
407;0;2;429;UMWELTABO JEDERMANN UNBAR ANTEIL KUNDE;1;4;7
409;0;2;416;UMWELTABO AMBERG SCHÜLER UNBAR ANTEIL  KT;0;4;9
410;0;3;0;KASSENÜBERSCHÜSSE VB;0;4;10
411;0;5;0;NACHWEIS DER POSTGEBÜHREN;0;4;11
412;0;6;401;EINZELFAHRT REGELTARIF SALDIERUNG;1;4;12
413;0;6;410;MEHRFAHRTEN REGELTARIF SALDIERUNG;1;4;13
415;405;1;0;STEUERPFLICHTIGE ABSETZUNG BAR;0;4;15
416;405;6;0;STEUERPFLICHTIGE ABSETZUNG STUNDUNG/SALD;0;4;16
417;406;1;401;ERSTATTUNG REGELTARIF BAR;1;4;17
418;406;1;414;ERSTATTUNG MONATSKARTE BAR;1;4;18
419;406;1;416;ERSTATTUNG SCHÜLERMONATSKARTE BAR;1;4;19
420;406;1;421;ERSTATTUNG WOCHENKARTE BAR;1;4;20
421;406;1;423;ERSTATTUNG SCHÜLERWOCHENKARTE BAR;1;4;21
422;410;0;401;NOT-/BLANKOFAHRSCH. REGELTARIF SCHECK;1;4;22
423;410;0;410;NOT-/BLANKOFAHRSCH. SECHSERKARTEN  SCHECK;1;4;23
424;410;0;414;NOT-/BLANKOFAHRSCH. MONATSKARTEN SCHECK;1;4;24
425;410;0;416;NOT-/BLANKOFAHRSCH. SCHÜLMON SCHECK;1;4;25
426;410;0;421;NOT-/BLANKOFAHRSCH. WOCHENKARTEN SCHECK;1;4;26
