BINARYTYPEID;TYPENAME;STANDALONE;DEVICENAME;DEVICENUMBER;IMPORTFILES;ALLOWEDIMPORTFILEEXTENSIONS
1;ITSO_IPEEX_DATA;0;ITSO_IPEEX_DATA;1;;
2;Kontrollmodul;1;VDVKA_DL_KM_XML;1001;;
3;KIM_Modul;1;KIM_MODUL;10000;"RMV_KIM.DLL;3521g.bin;3620.bin";*.zip
