RULEPERIODID;PERIODSTART;PERIODUNIT;PERIODVALUE;VALIDTIMEUNIT;VALIDTIMEVALUE;EXTTIMEUNIT;EXTTIMEVALUE;SELLABLEFROM;DEFAULTFROM;TARIFFID;NAME#de-DE;NAME#en-US;SELECTABLE;READONLY;RULEPERIODNUMBER;DESCRIPTION#de-DE;DESCRIPTION#en-US;VALIDATIONTYPE;SELLABLEUNTIL;CALENDARID;VALIDITYFROMFARETABLE
1;06.01.2014;8;1;8;1;1;0;23.12.2013;06.01.2014;1;Kalenderwoche. Aktuelle Woche.;Calendar week. Current Week.;1;0;0;Kalenderwoche (Montag bis Sonntag). Aktuelle Kalenderwoche ist als Beginn voreingestellt.;Calendar week (Monday to Sunday). Current week is preselected as start date.;16;13.01.2014;-1;0
2;06.01.2014;8;1;8;1;1;0;23.12.2013;03.01.2014;1;Kalenderwoche. Aktuelle Woche. Folgewoche ab Donnerstag voreingestellt.;Calendar week. Current Week. Following week preset from Thursday.;1;0;0;Bis Mittwoch ist die aktuelle Kalenderwoche voreingestellt. Ab Donnerstag die folgende Kalenderwoche.;Current week is preselected until wedneday. From Thursday on the following week is preselected.;16;13.01.2014;-1;0
3;01.01.2014;10;1;10;1;1;0;01.12.2013;01.01.2014;1;Kalendermonat. Aktueller Monat.;Calendar month. Current month.;1;0;3;Aktueller Kalendermonat. Einen Monat im Voraus verkaufbar. (Beispiel: 1.1.2014 bis 31.1.2014);Current calendar month. Can be presaled one month in advance. (E.g. 2014-01-01 to 2014-1-31);16;01.02.2014;-1;0
4;01.01.2014;10;1;10;1;1;0;01.12.2013;20.12.2013;1;Kalendermonat. Aktueller Monat. Folgemonat ab dem 20 voreingestellt.;Calendar month. Current month. Following month preset from the 20th.;1;0;4;Aktueller Kalendermonat. Einen Monat im Voraus verkaufbar. Ab dem 20. ist der nächste Monat voreingestellt.;Current calendar month. Can be presaled one month in advance. From the 20th on the following month is preselected.;16;01.02.2014;-1;0
5;01.01.2014;7;1;10;1;1;0;18.12.2013;01.01.2014;1;Monat. Flexibel.;Month. Flexible.;1;0;5;Einen Monat ab aktuellem Tag. (Beispiel: 27.5. bis 26.6 oder 31.5 bis 29.6.);One month starting at the current date. (E.g. 05-27 to 06-26 or 05-31 to 06-29);16;02.01.2014;-1;0
6;01.01.2014;7;1;10;1;7;1;18.12.2013;01.01.2014;1;Monat + 1 Tag. Flexibel.;Month + 1 day. Flexible.;1;0;6;Aktueller Tag + einen Monat. (Beispiel: 27.5. bis 27.6 oder 31.5 bis 30.6.);Current day + one month. (E.g. 05-27 to 06-27 or 05-31 to 06-30);16;02.01.2014;-1;0
7;16.01.2014;1;1;1;1;1;0;16.01.2014;16.01.2014;1;Gültigkeitsdauer aus Preistabelle.;Validity from fare table.;1;0;17;Die Gültigkeitsdauer wird aus der Preistabelle bezogen. Der Beginn ist immer die aktuelle Uhrzeit.;Validity is obtained from the ticket's fare table. Start is always the current time.;16;16.01.2014;-1;1
8;01.01.2014;1;1;5;24;1;0;01.01.2014;01.01.2014;1;Tag. 24 Stunden.;Day. 24 hours.;1;0;18;Echte 24 Stunden beginnend ab der aktuellen Sekunde.;Real 24 hours starting at the current second.;16;01.01.2014;-1;0
9;01.01.2014;7;1;7;7;1;0;29.12.2013;01.01.2014;1;7 Tage. Flexibel.;7 days. Flexible.;1;0;2;7 Tage mit flexiblem Beginn. Aktueller Tag als Beginn voreingestellt.;7 days with a flexible begin. Current day is preselected as start.;16;02.01.2014;-1;0
10;01.01.2014;7;1;7;1;1;0;29.12.2013;01.01.2014;1;Tag. Aktueller Tag.;Day. Current day.;1;0;0;1 Tag. Keine echten 24 Stunden.;1 day. No real 24 hours.;16;02.01.2014;-1;0
11;01.01.2014;7;1;7;31;1;0;29.12.2013;01.01.2014;1;31 Tage. Flexibel.;31 days. Flexible.;1;0;10;31 Tage mit flexiblem Beginn. Aktueller Tag als Beginn voreingestellt.;31 days with a flexible start.;16;02.01.2014;-1;0
12;01.01.2014;10;1;11;1;1;0;01.12.2013;01.01.2014;1;Jahr. Ab aktuellem Monat.;Year. Starting from curent month.;1;0;11;Monatsgenaues Jahr. Aktueller Monat ist als Beginn voreingestellt.;One year starting with the current month. First of current month is preselected as start date.;16;01.02.2014;-1;0
13;01.01.2014;7;1;11;1;7;1;01.12.2013;01.01.2014;1;Jahr + 1 Tag. Flexibel.;Year + 1 day. Flexible.;1;0;14;Tagesgenaues Jahr + 1 Tag;One year + 1 day starting at the current day.;16;01.01.2015;-1;0
14;01.01.2014;11;1;11;1;7;1;01.01.2014;01.01.2014;1;Kalenderjahr;Calendar year.;1;0;0;Komplettes Kalenderjahr + 1 Tag. (Beispiel vom 1.1.2014 bis 1.1.2015);Current calendar year + 1 day. (E.g. 2014-01-01 to 2015-01-01);16;01.01.2015;-1;0
15;01.01.2014;10;4;10;4;1;0;01.12.2013;01.01.2014;1;4 Monate. Fest.;4 months. Fix.;1;0;15;1/3-Jahr. Mit Beginn im Januar, Mai oder September.;1/3 year. Starting in january, may or september.;16;01.05.2014;-1;0
